{
  "name": "Githyanki",
  "type": "race",
  "img": "systems/dnd5e/icons/svg/items/race.svg",
  "system": {
    "description": {
      "value": "<p><em>Once members of a people who escaped servitude to mind flayers, githyanki split from their cousins, githzerai, and fled to the Astral Plane. In that timeless, silvery realm, githyanki honed their psionic powers and built a great city called Tu’narath. They have since spread throughout the multiverse, starting in outposts outside the Astral Plane, called creches, where time passes and their children can reach adulthood.</em></p><p><em>A lanky people with skin tones of yellows, greens, and browns, githyanki complement their physical prowess with psionic might, instilled in them by mind flayers and cultivated over eons in the Astral Plane. Now all githyanki can use their psychic bond with that plane to access splinters of knowledge left behind by beings who travel, live, and die among the silver astral clouds.</em></p><p><em>Githyanki who reside in the Astral Plane can live indefinitely.</em></p><p><strong>Ability Score Increase.</strong> When determining your character’s ability scores, increase one score by 2 and increase a different score by 1, or increase three different scores by 1. You can't raise any of your scores above 20.</p><p><strong>Creature Type.</strong> You are a Humanoid.</p><p><strong>Size.</strong> You are Medium.</p><p><strong>Speed.</strong> Your walking speed is 30 feet.</p><p><strong>Astral Knowledge.</strong> You can mystically access a reservoir of experiences of entities connected to the Astral Plane. Whenever you finish a long rest, you gain proficiency in one skill of your choice and with one weapon or tool of your choice, selected from the <em>Player’s Handbook</em>, as you momentarily project your consciousness into the Astral Plane. These proficiencies last until the end of your next long rest.</p><p><strong>Githyanki Psionics.</strong> You know the  @UUID[Compendium.dnd5e.spells.Item.Utk1OQRwYkMkFRD3]{Mage Hand} cantrip, and the hand is invisible when you cast the cantrip with this trait.</p><ul><li>Starting at 3rd level, you can cast the @UUID[Compendium.dnd5e.spells.Item.ZrTc23tToJ0JpH2h]{Jump} spell with this trait. Starting at 5th level, you can also cast the @UUID[Compendium.dnd5e.spells.Item.wqfAVANuQonNBgnL]{Misty Step} spell with it. Once you cast Jump or Misty Step with this trait, you can’t cast that spell with it again until you finish a long rest. You can also cast either of those spells using any spell slots you have of the appropriate level.</li><li>Intelligence, Wisdom, or Charisma is your spellcasting ability for these spells when you cast them with this trait (choose when you select this race). None of these spells require spell components when you cast them with this trait.</li></ul><p><strong>Psychic Resilience.</strong> You have resistance to psychic damage.</p><p><strong>Languages.</strong> Your character can speak, read, and write Common and one other language that you and your DM agree is appropriate for the character. The <em>Player’s Handbook</em> offers a list of languages to choose from. The DM is free to modify that list for a campaign.</p>",
      "chat": ""
    },
    "source": {
      "book": "",
      "page": "",
      "custom": "Motm",
      "license": ""
    },
    "advancement": [
      {
        "type": "AbilityScoreImprovement",
        "_id": "oSsAIBr2CgIvZPJI",
        "configuration": {
          "points": 3,
          "fixed": {
            "str": 0,
            "dex": 0,
            "con": 0,
            "int": 0,
            "wis": 0,
            "cha": 0
          },
          "cap": 2
        },
        "value": {
          "type": "asi"
        },
        "level": 0,
        "title": "",
        "icon": null
      },
      {
        "type": "Size",
        "_id": "hH7YfXmR8aDYHbdl",
        "configuration": {
          "sizes": [
            "med"
          ]
        },
        "level": 0,
        "value": {}
      },
      {
        "type": "Trait",
        "configuration": {
          "grants": [
            "languages:standard:common"
          ],
          "mode": "default",
          "allowReplacements": false,
          "choices": [
            {
              "count": 1,
              "pool": [
                "languages:*"
              ]
            }
          ],
          "hint": ""
        },
        "_id": "SmRfrzHAOlNjuRJj",
        "level": 0,
        "title": "",
        "icon": null,
        "value": {}
      },
      {
        "_id": "4WTJWDhHa9MQqDTY",
        "type": "ItemGrant",
        "configuration": {
          "items": [
            "Compendium.dnd5e.spells.Item.wqfAVANuQonNBgnL"
          ],
          "optional": false,
          "spell": {
            "ability": "",
            "preparation": "innate",
            "uses": {
              "max": "1",
              "per": "lr"
            }
          }
        },
        "value": {},
        "level": 5,
        "title": "Githyanki Psionics",
        "icon": null
      },
      {
        "_id": "RcMc2kJBbTc2OAFb",
        "type": "ItemGrant",
        "configuration": {
          "items": [
            "Compendium.dnd5e.spells.Item.ZrTc23tToJ0JpH2h"
          ],
          "optional": false,
          "spell": {
            "ability": "",
            "preparation": "innate",
            "uses": {
              "max": "1",
              "per": "lr"
            }
          }
        },
        "value": {},
        "level": 3,
        "title": "Githyanki Psionics",
        "icon": null
      },
      {
        "_id": "krk3BDW2UcavdS57",
        "type": "ItemGrant",
        "configuration": {
          "items": [
            "Compendium.dnd5e.spells.Item.Utk1OQRwYkMkFRD3"
          ],
          "optional": false,
          "spell": {
            "ability": "",
            "preparation": "innate",
            "uses": {
              "max": "",
              "per": ""
            }
          }
        },
        "value": {},
        "level": 0,
        "title": "Githyanki Psionics",
        "icon": null
      },
      {
        "_id": "0McQC8tj11X4NvLy",
        "type": "ItemGrant",
        "configuration": {
          "items": [
            "Item.b88iNgJt9clOyXbp",
            "Item.uIFUmJpoMkNdy5Hs",
            "Item.a1jU46xtOsIr7mQw"
          ],
          "optional": false,
          "spell": null
        },
        "value": {},
        "level": 0
      }
    ],
    "movement": {
      "burrow": null,
      "climb": null,
      "fly": null,
      "swim": null,
      "walk": 30,
      "units": null,
      "hover": false
    },
    "senses": {
      "darkvision": null,
      "blindsight": null,
      "tremorsense": null,
      "truesight": null,
      "units": null,
      "special": ""
    },
    "type": {
      "value": "humanoid"
    }
  },
  "effects": [],
  "folder": "LTXLrZrk2s8UP8VH",
  "flags": {
    "core": {},
    "exportSource": {
      "world": "test",
      "system": "dnd5e",
      "coreVersion": "11.315",
      "systemVersion": "3.0.4"
    }
  },
  "_stats": {
    "systemId": "dnd5e",
    "systemVersion": "3.0.4",
    "coreVersion": "11.315",
    "createdTime": 1711445445763,
    "modifiedTime": 1711446118546,
    "lastModifiedBy": "x6dGNqF45R5Qh86k"
  }
}