{
  "name": "Githzerai",
  "type": "race",
  "img": "systems/dnd5e/icons/svg/items/race.svg",
  "system": {
    "description": {
      "value": "<p><em>Githzerai migrated to the Everchanging Chaos of Limbo after the ancient schism that split their ancestors from their cousins, githyanki. Limbo is a roiling maelstrom of matter and energy, collapsing and reforming without purpose or direction, until a creature exerts deliberate will to stabilize it. Through their potent psionic power, githzerai carved a home for themselves amid the chaos. As the ages passed, githzerai explorers ranged out to other planes and worlds of the multiverse.</em></p><p><em>Githzerai are generally slender, with speckled skin in shades of yellow, green, or brown. Eons of cultivating their mental powers within the endless chaos of Limbo have imbued githzerai with the ability to shape psionic energy to protect themselves and probe minds.</em></p><p><strong>Ability Score Increase.</strong> When determining your character’s ability scores, increase one score by 2 and increase a different score by 1, or increase three different scores by 1. You can't raise any of your scores above 20.</p><p><strong>Creature Type.</strong> You are a Humanoid.</p><p><strong>Size.</strong> You are Medium.</p><p><strong>Speed.</strong> Your walking speed is 30 feet.</p><p><strong>Githzerai Psionics.</strong> You know the @UUID[Compendium.dnd5e.spells.Item.Utk1OQRwYkMkFRD3]{Mage Hand} cantrip, and the hand is invisible when you cast the cantrip with this trait.</p><ul><li>Starting at 3rd level, you can cast the @UUID[Compendium.dnd5e.spells.Item.z1mx84ONwkXKUZd7]{Shield} spell with this trait. Starting at 5th level, you can also cast the @UUID[Compendium.dnd5e.spells.Item.ppWAAEul0QHtm4er]{Detect Thoughts} spell with it. Once you cast Shield or Detect Thoughts with this trait, you can’t cast that spell with it again until you finish a long rest. You can also cast either of those spells using any spell slots you have of the appropriate level.</li><li>Intelligence, Wisdom, or Charisma is your spellcasting ability for these spells when you cast them with this trait (choose when you select this race). None of these spells require spell components when you cast them with this trait.</li></ul><p><strong>Mental Discipline.</strong> Your innate psychic defenses grant you advantage on saving throws you make to avoid or end the charmed and frightened conditions on yourself.</p><p><strong>Psychic Resilience.</strong> You have resistance to psychic damage.</p><p><strong>Languages.</strong> Your character can speak, read, and write Common and one other language that you and your DM agree is appropriate for the character. The <em>Player’s Handbook</em> offers a list of languages to choose from. The DM is free to modify that list for a campaign.</p>",
      "chat": ""
    },
    "source": {
      "book": "",
      "page": "",
      "custom": "MotM",
      "license": ""
    },
    "advancement": [
      {
        "type": "AbilityScoreImprovement",
        "_id": "VtWMaGusrXdd6MH4",
        "configuration": {
          "points": 3,
          "fixed": {
            "str": 0,
            "dex": 0,
            "con": 0,
            "int": 0,
            "wis": 0,
            "cha": 0
          },
          "cap": 2
        },
        "value": {
          "type": "asi"
        },
        "level": 0,
        "title": "",
        "icon": null
      },
      {
        "type": "Size",
        "_id": "E9WzNmK91iFapetO",
        "configuration": {
          "sizes": [
            "med"
          ]
        },
        "level": 0,
        "value": {}
      },
      {
        "type": "Trait",
        "configuration": {
          "grants": [
            "languages:standard:common"
          ],
          "mode": "default",
          "allowReplacements": false,
          "choices": [
            {
              "count": 1,
              "pool": [
                "languages:*"
              ]
            }
          ],
          "hint": ""
        },
        "_id": "SOwrYiSSJsDQ75kC",
        "level": 0,
        "title": "",
        "icon": null,
        "value": {
          "chosen": []
        }
      },
      {
        "_id": "xTaWoiKR7CRSKysH",
        "type": "ItemGrant",
        "configuration": {
          "items": [
            {
              "uuid": "Compendium.dnd5e.spells.Item.Utk1OQRwYkMkFRD3"
            }
          ],
          "optional": false,
          "spell": {
            "ability": "",
            "preparation": "innate",
            "uses": {
              "max": "",
              "per": ""
            }
          }
        },
        "value": {},
        "level": 0,
        "title": "Githzerai Psionics",
        "icon": null
      },
      {
        "_id": "1L8RtjlQR3h1spTf",
        "type": "ItemGrant",
        "configuration": {
          "items": [
            {
              "uuid": "Compendium.dnd5e.spells.Item.z1mx84ONwkXKUZd7"
            }
          ],
          "optional": false,
          "spell": {
            "ability": "",
            "preparation": "innate",
            "uses": {
              "max": "1",
              "per": "lr"
            }
          }
        },
        "value": {},
        "level": 3,
        "title": "Githzerai Psionics",
        "icon": null
      },
      {
        "_id": "R4DtBwjZjN7Uqwy6",
        "type": "ItemGrant",
        "configuration": {
          "items": [
            {
              "uuid": "Compendium.dnd5e.spells.Item.ppWAAEul0QHtm4er"
            }
          ],
          "optional": false,
          "spell": {
            "ability": "",
            "preparation": "innate",
            "uses": {
              "max": "1",
              "per": "lr"
            }
          }
        },
        "value": {},
        "level": 5,
        "title": "Githzerai Psionics",
        "icon": null
      },
      {
        "_id": "SwLTWEiuLol2oNuG",
        "type": "ItemGrant",
        "configuration": {
          "items": [
            {
              "uuid": "Item.a1jU46xtOsIr7mQw"
            },
            {
              "uuid": "Item.rhWCIZiW33DBIEJg"
            },
            {
              "uuid": "Item.guPUpeiBJ1E9AExP"
            }
          ],
          "optional": false,
          "spell": null
        },
        "value": {},
        "level": 0
      }
    ],
    "movement": {
      "burrow": null,
      "climb": null,
      "fly": null,
      "swim": null,
      "walk": 30,
      "units": null,
      "hover": false
    },
    "senses": {
      "darkvision": null,
      "blindsight": null,
      "tremorsense": null,
      "truesight": null,
      "units": null,
      "special": ""
    },
    "type": {
      "value": "humanoid"
    }
  },
  "effects": [],
  "folder": "LTXLrZrk2s8UP8VH",
  "flags": {
    "core": {},
    "exportSource": {
      "world": "test",
      "system": "dnd5e",
      "coreVersion": "11.315",
      "systemVersion": "3.1.1"
    }
  },
  "_stats": {
    "systemId": "dnd5e",
    "systemVersion": "3.1.1",
    "coreVersion": "11.315",
    "createdTime": 1711445581061,
    "modifiedTime": 1711447085526,
    "lastModifiedBy": "x6dGNqF45R5Qh86k"
  }
}