{
  "name": "Goliath",
  "type": "race",
  "img": "systems/dnd5e/icons/svg/items/race.svg",
  "system": {
    "description": {
      "value": "<p><em>The first goliaths lived on the highest mountain peaks — far above the tree line, where the air is thin and frigid winds howl. Distantly related to giants and infused with the supernatural essence of their ancestors’ mountainous home, goliaths stand between 7 and 8 feet tall and have a wide array of skin tones resembling different types of stone.</em></p><p><strong>Ability Score Increase.</strong> When determining your character’s ability scores, increase one score by 2 and increase a different score by 1, or increase three different scores by 1. You can't raise any of your scores above 20.</p><p><strong>Creature Type.</strong> You are a Humanoid.</p><p><strong>Size.</strong> You are Medium.</p><p><strong>Speed.</strong> Your walking speed is 30 feet.</p><p><strong>Little Giant.</strong> You have proficiency in the Athletics skill, and you count as one size larger when determining your carrying capacity and the weight you can push, drag, or lift.</p><p><strong>Mountain Born.</strong> You have resistance to cold damage. You also naturally acclimate to high altitudes, even if you’ve never been to one. This includes elevations above 20,000 feet.</p><p><strong>Stone's Endurance.</strong> You can supernaturally draw on unyielding stone to shrug off harm. When you take damage, you can use your reaction to roll a d12. Add your Constitution modifier to the number rolled and reduce the damage by that total.</p><ul><li>You can use this trait a number of times equal to your proficiency bonus, and you regain all expended uses when you finish a long rest.</li></ul><p><strong>Languages.</strong> Your character can speak, read, and write Common and one other language that you and your DM agree is appropriate for the character. The <em>Player’s Handbook</em> offers a list of languages to choose from. The DM is free to modify that list for a campaign.</p>",
      "chat": ""
    },
    "source": {
      "book": "",
      "page": "",
      "custom": "MotM",
      "license": ""
    },
    "advancement": [
      {
        "type": "AbilityScoreImprovement",
        "_id": "VtWMaGusrXdd6MH4",
        "configuration": {
          "points": 3,
          "fixed": {
            "str": 0,
            "dex": 0,
            "con": 0,
            "int": 0,
            "wis": 0,
            "cha": 0
          },
          "cap": 2
        },
        "value": {
          "type": "asi"
        },
        "level": 0,
        "title": "",
        "icon": null
      },
      {
        "type": "Size",
        "_id": "E9WzNmK91iFapetO",
        "configuration": {
          "sizes": [
            "med"
          ]
        },
        "level": 0,
        "value": {}
      },
      {
        "type": "Trait",
        "configuration": {
          "grants": [
            "languages:standard:common"
          ],
          "mode": "default",
          "allowReplacements": false,
          "choices": [
            {
              "count": 1,
              "pool": [
                "languages:*"
              ]
            }
          ],
          "hint": ""
        },
        "_id": "SOwrYiSSJsDQ75kC",
        "level": 0,
        "title": "",
        "icon": null,
        "value": {
          "chosen": []
        }
      },
      {
        "_id": "4jNI669ufJ4qeGkm",
        "type": "ItemGrant",
        "configuration": {
          "items": [
            {
              "uuid": "Item.00knfN6ZpffJWjRO"
            },
            {
              "uuid": "Item.9UyOQT8Td1TjtBcf"
            },
            {
              "uuid": "Item.MVhN6xdb6lhqGTvm"
            }
          ],
          "optional": false,
          "spell": null
        },
        "value": {},
        "level": 0
      }
    ],
    "movement": {
      "burrow": null,
      "climb": null,
      "fly": null,
      "swim": null,
      "walk": 30,
      "units": null,
      "hover": false
    },
    "senses": {
      "darkvision": null,
      "blindsight": null,
      "tremorsense": null,
      "truesight": null,
      "units": null,
      "special": ""
    },
    "type": {
      "value": "humanoid"
    }
  },
  "effects": [],
  "folder": "68TnQnZUB798qfxl",
  "flags": {
    "core": {},
    "exportSource": {
      "world": "test",
      "system": "dnd5e",
      "coreVersion": "11.315",
      "systemVersion": "3.1.1"
    }
  },
  "_stats": {
    "systemId": "dnd5e",
    "systemVersion": "3.1.1",
    "coreVersion": "11.315",
    "createdTime": 1711445581061,
    "modifiedTime": 1711464257652,
    "lastModifiedBy": "x6dGNqF45R5Qh86k"
  }
}