{
  "name": "Fairy Magic",
  "type": "feat",
  "img": "systems/dnd5e/icons/svg/items/feature.svg",
  "system": {
    "description": {
      "value": "<p>You know the @UUID[Compendium.dnd5e.spells.Item.SbSvZKkJASyk8jKo]{Druidcraft} cantrip.</p><ul><li>Starting at 3rd level, you can cast the @UUID[Compendium.dnd5e.spells.Item.nqBDWkVOfcGZt4YU]{Faerie Fire} spell with this trait. Starting at 5th level, you can also cast the spell @UUID[Compendium.dnd5e.spells.Item.WahI41a3goVUg0x1]{Enlarge/Reduce} with this trait. Once you cast Faerie Fire or Enlarge/Reduce with this trait, you can’t cast that spell with it again until you finish a long rest. You can also cast either of those spells using any spell slots you have of the appropriate level.</li><li>Intelligence, Wisdom, or Charisma is your spellcasting ability for these spells when you cast them with this trait (choose when you select this race).</li></ul>",
      "chat": ""
    },
    "source": {
      "book": "",
      "page": "",
      "custom": "MotM",
      "license": ""
    },
    "activation": {
      "type": "",
      "cost": null,
      "condition": ""
    },
    "duration": {
      "value": "",
      "units": ""
    },
    "cover": null,
    "crewed": false,
    "target": {
      "value": null,
      "width": null,
      "units": "",
      "type": "",
      "prompt": true
    },
    "range": {
      "value": null,
      "long": null,
      "units": ""
    },
    "uses": {
      "value": null,
      "max": "",
      "per": null,
      "recovery": "",
      "prompt": true
    },
    "consume": {
      "type": "",
      "target": null,
      "amount": null,
      "scale": false
    },
    "ability": null,
    "actionType": "",
    "attackBonus": "",
    "chatFlavor": "",
    "critical": {
      "threshold": null,
      "damage": ""
    },
    "damage": {
      "parts": [],
      "versatile": ""
    },
    "formula": "",
    "save": {
      "ability": "",
      "dc": null,
      "scaling": "spell"
    },
    "type": {
      "value": "race",
      "subtype": ""
    },
    "properties": [],
    "requirements": "Fairy",
    "recharge": {
      "value": null,
      "charged": false
    }
  },
  "effects": [],
  "folder": "8hx76jz1C2enxFa1",
  "flags": {
    "core": {},
    "exportSource": {
      "world": "test",
      "system": "dnd5e",
      "coreVersion": "11.315",
      "systemVersion": "3.0.4"
    }
  },
  "_stats": {
    "systemId": "dnd5e",
    "systemVersion": "3.0.4",
    "coreVersion": "11.315",
    "createdTime": 1710519393074,
    "modifiedTime": 1711443955168,
    "lastModifiedBy": "x6dGNqF45R5Qh86k"
  }
}