{
  "name": "Fey Step - Autumn",
  "type": "feat",
  "img": "systems/dnd5e/icons/svg/items/feature.svg",
  "system": {
    "description": {
      "value": "<blockquote><p>\"Peace and goodwill, when summer's harvest is shared with all\"</p></blockquote><p></p><p>As a bonus action, you can magically teleport up to 30 feet to an unoccupied space you can see. You can use this trait a number of times equal to your proficiency bonus, and you regain all expended uses when you finish a long rest. </p><p>When you reach 3rd level, your Fey Step gains an additional effect based on your season; if the effect requires a saving throw, the DC equals 8 + your proficiency bonus + your Intelligence, Wisdom, or Charisma modifier (choose when you select this race)</p><p><strong>Autumn.</strong> Immediately after you use your Fey Step, up to two creatures of your choice that you can see within 10 feet of you must succeed on a Wisdom saving throw or be charmed by you for 1 minute, or until you or your companions deal any damage to the creatures.</p>",
      "chat": ""
    },
    "source": {
      "book": "",
      "page": "",
      "custom": "MotM",
      "license": ""
    },
    "activation": {
      "type": "",
      "cost": null,
      "condition": ""
    },
    "duration": {
      "value": "",
      "units": ""
    },
    "cover": null,
    "crewed": false,
    "target": {
      "value": null,
      "width": null,
      "units": "",
      "type": "",
      "prompt": true
    },
    "range": {
      "value": null,
      "long": null,
      "units": ""
    },
    "uses": {
      "value": null,
      "max": "",
      "per": null,
      "recovery": "",
      "prompt": true
    },
    "consume": {
      "type": "",
      "target": null,
      "amount": null,
      "scale": false
    },
    "ability": null,
    "actionType": "",
    "attackBonus": "",
    "chatFlavor": "",
    "critical": {
      "threshold": null,
      "damage": ""
    },
    "damage": {
      "parts": [],
      "versatile": ""
    },
    "formula": "",
    "save": {
      "ability": "",
      "dc": null,
      "scaling": "spell"
    },
    "type": {
      "value": "race",
      "subtype": ""
    },
    "properties": [],
    "requirements": "Eladrin",
    "recharge": {
      "value": null,
      "charged": false
    }
  },
  "effects": [
    {
      "name": "Fey Steps - Autumn",
      "icon": "systems/dnd5e/icons/svg/items/feature.svg",
      "origin": "Item.LwMddINGHAOW3D9Y",
      "duration": {
        "startTime": null,
        "seconds": null,
        "combat": null,
        "rounds": null,
        "turns": null,
        "startRound": null,
        "startTurn": null
      },
      "disabled": false,
      "_id": "vTqGqDuAskvsVH4Z",
      "changes": [],
      "description": "",
      "transfer": true,
      "statuses": [],
      "flags": {}
    }
  ],
  "folder": "kJolgVmJWBBTAWGp",
  "flags": {
    "core": {},
    "exportSource": {
      "world": "test",
      "system": "dnd5e",
      "coreVersion": "11.315",
      "systemVersion": "3.0.4"
    }
  },
  "_stats": {
    "systemId": "dnd5e",
    "systemVersion": "3.0.4",
    "coreVersion": "11.315",
    "createdTime": 1710519393074,
    "modifiedTime": 1711382588885,
    "lastModifiedBy": "x6dGNqF45R5Qh86k"
  }
}