{
  "name": "Aarakocra Features",
  "sorting": "a",
  "folder": "H2wvPtn11yEFSd64",
  "type": "Item",
  "_id": "bYq316CbmhMdFGG4",
  "sort": 0,
  "color": null,
  "flags": {},
  "_stats": {
    "systemId": null,
    "systemVersion": null,
    "coreVersion": null,
    "createdTime": null,
    "modifiedTime": null,
    "lastModifiedBy": null
  },
  "_key": "!folders!bYq316CbmhMdFGG4"
}
