{
  "name": "Firbolg Magic",
  "type": "feat",
  "img": "systems/dnd5e/icons/svg/items/feature.svg",
  "system": {
    "description": {
      "value": "<p><span style=\"font-family:Signika, sans-serif\">You can cast the <a class=\"content-link\" draggable=\"true\" data-uuid=\"Compendium.dnd5e.spells.Item.ghXTfe7sgCbgf1Q8\" data-id=\"ghXTfe7sgCbgf1Q8\" data-type=\"Item\" data-pack=\"dnd5e.spells\" data-tooltip=\"Spell Item\" style=\"box-sizing:border-box;user-select:text;cursor:pointer;background:rgb(221, 221, 221);padding:1px 4px;border:1px solid var(--color-border-dark-tertiary);border-radius:2px;white-space:nowrap;word-break:break-all\">Detect Magic</a> and <a class=\"content-link\" draggable=\"true\" data-uuid=\"Compendium.dnd5e.spells.Item.A3q2gTNqG6fvNGrv\" data-id=\"A3q2gTNqG6fvNGrv\" data-type=\"Item\" data-pack=\"dnd5e.spells\" data-tooltip=\"Spell Item\" style=\"box-sizing:border-box;user-select:text;cursor:pointer;background:rgb(221, 221, 221);padding:1px 4px;border:1px solid var(--color-border-dark-tertiary);border-radius:2px;white-space:nowrap;word-break:break-all\">Disguise Self</a> spells with this trait. When you use this version of Disguise Self, you can seem up to 3 feet shorter or taller. Once you cast either of these spells with this trait, you can’t cast that spell with it again until you finish a long rest. You can also cast these spells using any spell slots you have.</span></p><ul style=\"box-sizing:border-box;user-select:text;margin:0.5em 0px;padding:0px 0px 0px 1.5em;color:rgb(25, 24, 19);font-family:Signika, sans-serif;font-size:13px;font-style:normal;font-variant-ligatures:normal;font-variant-caps:normal;font-weight:400;letter-spacing:normal;orphans:2;text-align:start;text-indent:0px;text-transform:none;white-space:normal;widows:2;word-spacing:0px;-webkit-text-stroke-width:0px;text-decoration-thickness:initial;text-decoration-style:initial;text-decoration-color:initial\"><li style=\"box-sizing:border-box;user-select:text\"><span style=\"font-family:Signika, sans-serif\">Intelligence, Wisdom, or Charisma is your spellcasting ability for these spells when you cast them with this trait (choose when you select this race).</span></li></ul>",
      "chat": ""
    },
    "source": {
      "book": "",
      "page": "",
      "custom": "MotM",
      "license": ""
    },
    "activation": {
      "type": "",
      "cost": null,
      "condition": ""
    },
    "duration": {
      "value": "",
      "units": ""
    },
    "cover": null,
    "crewed": false,
    "target": {
      "value": null,
      "width": null,
      "units": "",
      "type": "",
      "prompt": true
    },
    "range": {
      "value": null,
      "long": null,
      "units": ""
    },
    "uses": {
      "value": null,
      "max": "",
      "per": null,
      "recovery": "",
      "prompt": true
    },
    "consume": {
      "type": "",
      "target": null,
      "amount": null,
      "scale": false
    },
    "ability": null,
    "actionType": "",
    "attackBonus": "",
    "chatFlavor": "",
    "critical": {
      "threshold": null,
      "damage": ""
    },
    "damage": {
      "parts": [],
      "versatile": ""
    },
    "formula": "",
    "save": {
      "ability": "",
      "dc": null,
      "scaling": "spell"
    },
    "type": {
      "value": "race",
      "subtype": ""
    },
    "properties": [],
    "requirements": "Firblog",
    "recharge": {
      "value": null,
      "charged": false
    }
  },
  "effects": [],
  "folder": "n1HSPHNsmEvzUSJl",
  "flags": {
    "core": {},
    "exportSource": {
      "world": "test",
      "system": "dnd5e",
      "coreVersion": "11.315",
      "systemVersion": "3.0.4"
    }
  },
  "_stats": {
    "systemId": "dnd5e",
    "systemVersion": "3.0.4",
    "coreVersion": "11.315",
    "createdTime": 1710519393074,
    "modifiedTime": 1711445033822,
    "lastModifiedBy": "x6dGNqF45R5Qh86k"
  }
}