{
  "name": "Fairy",
  "type": "race",
  "img": "systems/dnd5e/icons/svg/items/race.svg",
  "system": {
    "description": {
      "value": "<p><em>The Feywild is home to many fantastic peoples, including fairies. Fairies are a wee folk, but not nearly as much so as their pixie and sprite friends. The first fairies spoke Elvish, Goblin, or Sylvan, and encounters with human visitors prompted many of them to learn Common as well.</em></p><p><em>Infused with the magic of the Feywild, most fairies look like Small elves with insectile wings, but each fairy has a special physical characteristic that sets the fairy apart. For your fairy, roll on the Fey Characteristics table or choose an option from it. You’re also free to come up with your own characteristic if none of the suggestions below fit your character.</em></p><table class=\"wiki-content-table\"><tbody><tr><th><p></p></th><th><p>Fey Characteristics</p></th></tr><tr><th><p>d8</p></th><th><p>Characteristic</p></th></tr><tr><td><p>1</p></td><td><p>Your wings are like those of a bird.</p></td></tr><tr><td><p>2</p></td><td><p>You have shimmering, multicolored skin.</p></td></tr><tr><td><p>3</p></td><td><p>You have exceptionally large ears.</p></td></tr><tr><td><p>4</p></td><td><p>A glittering mist constantly surrounds you.</p></td></tr><tr><td><p>5</p></td><td><p>You have a small spectral horn on your forehead, like a little unicorn horn.</p></td></tr><tr><td><p>6</p></td><td><p>Your legs are insectile.</p></td></tr><tr><td><p>7</p></td><td><p>You smell like fresh brownies.</p></td></tr><tr><td><p>8</p></td><td><p>A noticeable, harmless chill surrounds you.</p></td></tr></tbody></table><p><strong>Ability Score Increase.</strong> When determining your character’s ability scores, increase one score by 2 and increase a different score by 1, or increase three different scores by 1. You can't raise any of your scores above 20.</p><p><strong>Creature Type.</strong> You are a Fey.</p><p><strong>Size.</strong> You are Small.</p><p><strong>Speed.</strong> Your walking speed is 30 feet.</p><p><strong>Fairy Magic.</strong> You know the @UUID[Compendium.dnd5e.spells.Item.SbSvZKkJASyk8jKo]{Druidcraft} cantrip.</p><ul><li>Starting at 3rd level, you can cast the @UUID[Compendium.dnd5e.spells.Item.nqBDWkVOfcGZt4YU]{Faerie Fire} spell with this trait. Starting at 5th level, you can also cast the spell @UUID[Compendium.dnd5e.spells.Item.WahI41a3goVUg0x1]{Enlarge/Reduce} with this trait. Once you cast Faerie Fire or Enlarge/Reduce with this trait, you can’t cast that spell with it again until you finish a long rest. You can also cast either of those spells using any spell slots you have of the appropriate level.</li><li>Intelligence, Wisdom, or Charisma is your spellcasting ability for these spells when you cast them with this trait (choose when you select this race).</li></ul><p><strong>Flight.</strong> Because of your wings, you have a flying speed equal to your walking speed. You can’t use this flying speed if you’re wearing medium or heavy armor.</p><p><strong>Languages. </strong>Your character can speak, read, and write Common and one other language that you and your DM agree is appropriate for the character. The <em>Player’s Handbook</em> offers a list of languages to choose from. The DM is free to modify that list for a campaign.</p>",
      "chat": ""
    },
    "source": {
      "book": "",
      "page": "",
      "custom": "MotM",
      "license": ""
    },
    "advancement": [
      {
        "type": "AbilityScoreImprovement",
        "_id": "YfeG3tf5CPwUhIm0",
        "configuration": {
          "points": 3,
          "fixed": {
            "str": 0,
            "dex": 0,
            "con": 0,
            "int": 0,
            "wis": 0,
            "cha": 0
          },
          "cap": 2
        },
        "value": {
          "type": "asi"
        },
        "level": 0,
        "title": "",
        "icon": null
      },
      {
        "type": "Size",
        "_id": "vd8HD8WyUPAcxMhS",
        "configuration": {
          "sizes": [
            "sm"
          ],
          "hint": ""
        },
        "level": 0,
        "title": "",
        "icon": null,
        "value": {}
      },
      {
        "type": "Trait",
        "configuration": {
          "grants": [
            "languages:standard:common"
          ],
          "mode": "default",
          "allowReplacements": false,
          "choices": [
            {
              "count": 1,
              "pool": [
                "languages:*"
              ]
            }
          ],
          "hint": ""
        },
        "_id": "BSb3W8eTjlICVvKk",
        "level": 0,
        "title": "",
        "icon": null,
        "value": {}
      },
      {
        "_id": "5wgoQlaYfg3KskR8",
        "type": "ItemGrant",
        "configuration": {
          "items": [
            "Compendium.dnd5e.spells.Item.WahI41a3goVUg0x1"
          ],
          "optional": false,
          "spell": {
            "ability": "",
            "preparation": "innate",
            "uses": {
              "max": "1",
              "per": "lr"
            }
          }
        },
        "value": {},
        "level": 5,
        "title": "Fairy Magic",
        "icon": null
      },
      {
        "_id": "QizwC6E8LGioH2Vm",
        "type": "ItemGrant",
        "configuration": {
          "items": [
            "Compendium.dnd5e.spells.Item.SbSvZKkJASyk8jKo"
          ],
          "optional": false,
          "spell": {
            "ability": "",
            "preparation": "innate",
            "uses": {
              "max": "",
              "per": ""
            }
          }
        },
        "value": {},
        "level": 0,
        "title": "Fairy Magic",
        "icon": null
      },
      {
        "_id": "U1QuJiOcVskAZLWq",
        "type": "ItemGrant",
        "configuration": {
          "items": [
            "Compendium.dnd5e.spells.Item.nqBDWkVOfcGZt4YU"
          ],
          "optional": false,
          "spell": {
            "ability": "",
            "preparation": "innate",
            "uses": {
              "max": "1",
              "per": "lr"
            }
          }
        },
        "value": {},
        "level": 3,
        "title": "Fairy Magic",
        "icon": null
      },
      {
        "_id": "hbOWqXstWyXAsXzw",
        "type": "ItemGrant",
        "configuration": {
          "items": [
            "Item.wVXGJ924CdANYO4Y"
          ],
          "optional": false,
          "spell": null
        },
        "value": {},
        "level": 0
      }
    ],
    "movement": {
      "burrow": null,
      "climb": null,
      "fly": 30,
      "swim": null,
      "walk": 30,
      "units": null,
      "hover": false
    },
    "senses": {
      "darkvision": null,
      "blindsight": null,
      "tremorsense": null,
      "truesight": null,
      "units": null,
      "special": ""
    },
    "type": {
      "value": "fey",
      "subtype": "",
      "custom": ""
    }
  },
  "effects": [],
  "folder": "uDX78iq6nIOyLQ1h",
  "flags": {
    "core": {},
    "exportSource": {
      "world": "test",
      "system": "dnd5e",
      "coreVersion": "11.315",
      "systemVersion": "3.0.4"
    }
  },
  "_stats": {
    "systemId": "dnd5e",
    "systemVersion": "3.0.4",
    "coreVersion": "11.315",
    "createdTime": 1711382778625,
    "modifiedTime": 1711443970527,
    "lastModifiedBy": "x6dGNqF45R5Qh86k"
  }
}