{
  "name": "Mental Discipline",
  "type": "feat",
  "img": "systems/dnd5e/icons/svg/items/feature.svg",
  "system": {
    "description": {
      "value": "<p><span style=\"font-family:Signika, sans-serif\">Your innate psychic defenses grant you advantage on saving throws you make to avoid or end the charmed and frightened conditions on yourself.</span></p>",
      "chat": ""
    },
    "source": {
      "book": "",
      "page": "",
      "custom": "MotM",
      "license": ""
    },
    "activation": {
      "type": "",
      "cost": null,
      "condition": ""
    },
    "duration": {
      "value": "",
      "units": ""
    },
    "cover": null,
    "crewed": false,
    "target": {
      "value": null,
      "width": null,
      "units": "",
      "type": "",
      "prompt": true
    },
    "range": {
      "value": null,
      "long": null,
      "units": ""
    },
    "uses": {
      "value": null,
      "max": "",
      "per": null,
      "recovery": "",
      "prompt": true
    },
    "consume": {
      "type": "",
      "target": null,
      "amount": null,
      "scale": false
    },
    "ability": null,
    "actionType": "",
    "chatFlavor": "",
    "critical": {
      "threshold": null,
      "damage": ""
    },
    "damage": {
      "parts": [],
      "versatile": ""
    },
    "formula": "",
    "save": {
      "ability": "",
      "dc": null,
      "scaling": "spell"
    },
    "type": {
      "value": "race",
      "subtype": ""
    },
    "properties": [],
    "requirements": "Githzerai",
    "recharge": {
      "value": null,
      "charged": false
    },
    "attack": {
      "bonus": "",
      "flat": false
    },
    "summons": null
  },
  "effects": [],
  "folder": "DjSb8WDA6tzMR4yw",
  "flags": {
    "core": {},
    "exportSource": {
      "world": "test",
      "system": "dnd5e",
      "coreVersion": "11.315",
      "systemVersion": "3.1.1"
    }
  },
  "_stats": {
    "systemId": "dnd5e",
    "systemVersion": "3.1.1",
    "coreVersion": "11.315",
    "createdTime": 1710519393074,
    "modifiedTime": 1711447050886,
    "lastModifiedBy": "x6dGNqF45R5Qh86k"
  }
}