{
  "name": "Stone's Endurance",
  "type": "feat",
  "img": "systems/dnd5e/icons/svg/items/feature.svg",
  "system": {
    "description": {
      "value": "<p><span style=\"font-family:Signika, sans-serif\">You can supernaturally draw on unyielding stone to shrug off harm. When you take damage, you can use your reaction to roll a d12. Add your Constitution modifier to the number rolled and reduce the damage by that total.</span></p><ul style=\"box-sizing:border-box;user-select:text;margin:0.5em 0px;padding:0px 0px 0px 1.5em;color:rgb(25, 24, 19);font-family:Signika, sans-serif;font-size:13px;font-style:normal;font-variant-ligatures:normal;font-variant-caps:normal;font-weight:400;letter-spacing:normal;orphans:2;text-align:start;text-indent:0px;text-transform:none;white-space:normal;widows:2;word-spacing:0px;-webkit-text-stroke-width:0px;text-decoration-thickness:initial;text-decoration-style:initial;text-decoration-color:initial\"><li style=\"box-sizing:border-box;user-select:text\"><span style=\"font-family:Signika, sans-serif\">You can use this trait a number of times equal to your proficiency bonus, and you regain all expended uses when you finish a long rest.</span></li></ul>",
      "chat": ""
    },
    "source": {
      "book": "",
      "page": "",
      "custom": "MotM",
      "license": ""
    },
    "activation": {
      "type": "",
      "cost": null,
      "condition": ""
    },
    "duration": {
      "value": "",
      "units": ""
    },
    "cover": null,
    "crewed": false,
    "target": {
      "value": null,
      "width": null,
      "units": "",
      "type": "",
      "prompt": true
    },
    "range": {
      "value": null,
      "long": null,
      "units": ""
    },
    "uses": {
      "value": null,
      "max": "",
      "per": null,
      "recovery": "",
      "prompt": true
    },
    "consume": {
      "type": "",
      "target": null,
      "amount": null,
      "scale": false
    },
    "ability": null,
    "actionType": "",
    "chatFlavor": "",
    "critical": {
      "threshold": null,
      "damage": ""
    },
    "damage": {
      "parts": [],
      "versatile": ""
    },
    "formula": "",
    "save": {
      "ability": "",
      "dc": null,
      "scaling": "spell"
    },
    "type": {
      "value": "race",
      "subtype": ""
    },
    "properties": [],
    "requirements": "Goliath",
    "recharge": {
      "value": null,
      "charged": false
    },
    "attack": {
      "bonus": "",
      "flat": false
    },
    "summons": null
  },
  "effects": [],
  "folder": "FAW4bi1qj98HYaXQ",
  "flags": {
    "exportSource": {
      "world": "test",
      "system": "dnd5e",
      "coreVersion": "11.315",
      "systemVersion": "3.1.1"
    }
  },
  "_stats": {
    "systemId": "dnd5e",
    "systemVersion": "3.1.1",
    "coreVersion": "11.315",
    "createdTime": 1710519393074,
    "modifiedTime": 1711455608879,
    "lastModifiedBy": "x6dGNqF45R5Qh86k"
  }
}