{
  "name": "Firblog",
  "type": "race",
  "img": "systems/dnd5e/icons/svg/items/race.svg",
  "system": {
    "description": {
      "value": "<p><em>Distant cousins of giants, the first firbolgs wandered the primeval forests of the multiverse, and the magic of those forests entwined itself with the firbolgs’ souls. Centuries later, that magic still thrums inside a firbolg, even one who has never lived under the boughs of a great forest.</em></p><p><em>A firbolg’s magic is an obscuring sort, which allowed their ancestors to pass through a forest without disturbing it. So deep is the connection between a firbolg and the wild places of the world that they can communicate with flora and fauna.</em></p><p><em>Firbolgs can live up to 500 years.</em></p><p><strong>Ability Score Increase.</strong> When determining your character’s ability scores, increase one score by 2 and increase a different score by 1, or increase three different scores by 1. You can't raise any of your scores above 20.</p><p><strong>Creature Type.</strong> You are a Humanoid.</p><p><strong>Size.</strong> You are Medium.</p><p><strong>Speed.</strong> Your walking speed is 30 feet.</p><p><strong>Firbolg Magic.</strong> You can cast the @UUID[Compendium.dnd5e.spells.Item.ghXTfe7sgCbgf1Q8]{Detect Magic} and @UUID[Compendium.dnd5e.spells.Item.A3q2gTNqG6fvNGrv]{Disguise Self} spells with this trait. When you use this version of Disguise Self, you can seem up to 3 feet shorter or taller. Once you cast either of these spells with this trait, you can’t cast that spell with it again until you finish a long rest. You can also cast these spells using any spell slots you have.</p><ul><li>Intelligence, Wisdom, or Charisma is your spellcasting ability for these spells when you cast them with this trait (choose when you select this race).</li></ul><p><strong>Hidden Step.</strong> As a bonus action, you can magically turn invisible until the start of your next turn or until you attack, make a damage roll, or force someone to make a saving throw. You can use this trait a number of times equal to your proficiency bonus, and you regain all expended uses when you finish a long rest.</p><p><strong>Powerful Build.</strong> You count as one size larger when determining your carrying capacity and the weight you can push, drag, or lift.</p><p><strong>Speech of Beast and Leaf.</strong> You have the ability to communicate in a limited manner with Beasts, Plants, and vegetation. They can understand the meaning of your words, though you have no special ability to understand them in return. You have advantage on all Charisma checks you make to influence them.</p><p><strong>Languages.</strong> Your character can speak, read, and write Common and one other language that you and your DM agree is appropriate for the character. The <em>Player’s Handbook</em> offers a list of languages to choose from. The DM is free to modify that list for a campaign.</p>",
      "chat": ""
    },
    "source": {
      "book": "",
      "page": "",
      "custom": "MotM",
      "license": ""
    },
    "advancement": [
      {
        "type": "AbilityScoreImprovement",
        "_id": "n1MQmt4YjQck7G4g",
        "configuration": {
          "points": 3,
          "fixed": {
            "str": 0,
            "dex": 0,
            "con": 0,
            "int": 0,
            "wis": 0,
            "cha": 0
          },
          "cap": 2
        },
        "value": {
          "type": "asi"
        },
        "level": 0,
        "title": "",
        "icon": null
      },
      {
        "type": "Size",
        "_id": "PubxSRbd6hrzxsTP",
        "configuration": {
          "sizes": [
            "med"
          ]
        },
        "level": 0,
        "value": {}
      },
      {
        "type": "Trait",
        "configuration": {
          "grants": [
            "languages:standard:common"
          ],
          "mode": "default",
          "allowReplacements": false,
          "choices": [
            {
              "count": 1,
              "pool": [
                "languages:*"
              ]
            }
          ],
          "hint": ""
        },
        "_id": "1jFWD4WOyFspkbul",
        "level": 0,
        "title": "",
        "icon": null,
        "value": {}
      },
      {
        "_id": "UM8jdWeVYqYHlGmZ",
        "type": "ItemGrant",
        "configuration": {
          "items": [
            "Item.skXEiaWgHnknJ1h1",
            "Item.mCr6DFZldSAHoaQ7",
            "Item.msodENJlNZOv61vJ",
            "Item.hsDWgu1KbnGLRBcO"
          ],
          "optional": false,
          "spell": null
        },
        "value": {},
        "level": 0
      },
      {
        "_id": "PEGAAKUFg2CBPnqj",
        "type": "ItemGrant",
        "configuration": {
          "items": [
            "Compendium.dnd5e.spells.Item.A3q2gTNqG6fvNGrv",
            "Compendium.dnd5e.spells.Item.ghXTfe7sgCbgf1Q8"
          ],
          "optional": false,
          "spell": {
            "ability": "",
            "preparation": "",
            "uses": {
              "max": "1",
              "per": "lr"
            }
          }
        },
        "value": {},
        "level": 0,
        "title": "Firblog Magic",
        "icon": null
      }
    ],
    "movement": {
      "burrow": null,
      "climb": null,
      "fly": null,
      "swim": null,
      "walk": 30,
      "units": null,
      "hover": false
    },
    "senses": {
      "darkvision": null,
      "blindsight": null,
      "tremorsense": null,
      "truesight": null,
      "units": null,
      "special": ""
    },
    "type": {
      "value": "humanoid"
    }
  },
  "effects": [],
  "folder": "k9Kxsq8qtpuKKSRs",
  "flags": {
    "core": {},
    "exportSource": {
      "world": "test",
      "system": "dnd5e",
      "coreVersion": "11.315",
      "systemVersion": "3.0.4"
    }
  },
  "_stats": {
    "systemId": "dnd5e",
    "systemVersion": "3.0.4",
    "coreVersion": "11.315",
    "createdTime": 1711444477014,
    "modifiedTime": 1711445368986,
    "lastModifiedBy": "x6dGNqF45R5Qh86k"
  }
}