{
  "name": "Duergar",
  "type": "race",
  "img": "systems/dnd5e/icons/svg/items/race.svg",
  "system": {
    "description": {
      "value": "<p><em>Duergar are dwarves whose ancestors were transformed by centuries living in the deepest places of the Underdark. That chthonic realm is saturated with strange magical energy, and over generations, early duergar absorbed traces of it. They were further altered when mind flayers and other Aberrations invaded and performed horrific experiments on them. Fueled by Underdark magic, those experiments left early duergar with psionic powers, which have been passed down to their descendants. In time, they liberated themselves from their aberrant tyrants and forged a new life for themselves in the Underdark and beyond.</em></p><p><em>Like other dwarves, duergar typically have a life span of 350 years.</em></p><p><strong>Ability Score Increase.</strong> When determining your character’s ability scores, increase one score by 2 and increase a different score by 1, or increase three different scores by 1. You can't raise any of your scores above 20.</p><p><strong>Creature Type.</strong> You are a Humanoid. You are also considered a dwarf for any prerequisite or effect that requires you to be a dwarf.</p><p><strong>Size.</strong> You are Medium.</p><p><strong>Speed.</strong> Your walking speed is 30 feet.</p><p><strong>Darkvision.</strong> You can see in dim light within 120 feet of you as if it were bright light and in darkness as if it were dim light. You discern colors in that darkness only as shades of gray.</p><p><strong>Duergar Magic.</strong> Starting at 3rd level, you can cast the @UUID[Compendium.dnd5e.spells.Item.WahI41a3goVUg0x1]{Enlarge/Reduce} spell with this trait, without requiring a material component. Starting at 5th level, you can also cast the @UUID[Compendium.dnd5e.spells.Item.1N8dDMMgZ1h1YJ3B]{Invisibility} spell with it, without requiring a material component. Once you cast either of these spells with this trait, you can’t cast that spell with it again until you finish a long rest. You can also cast these spells using spell slots you have of the appropriate level.</p><ul><li>Intelligence, Wisdom, or Charisma is your spellcasting ability for these spells when you cast them with this trait (choose when you select this race).</li></ul><p><strong>Dwarven Resilience.</strong> You have advantage on saving throws you make to avoid or end the poisoned condition on yourself. You also have resistance to poison damage.</p><p><strong>Psionic Fortitude.</strong> You have advantage on saving throws you make to avoid or end the charmed or stunned condition on yourself.</p><p><strong>Languages.</strong> Your character can speak, read, and write Common and one other language that you and your DM agree is appropriate for the character. The <em>Player’s Handbook</em> offers a list of languages to choose from. The DM is free to modify that list for a campaign.</p>",
      "chat": ""
    },
    "source": {
      "book": "",
      "page": "",
      "custom": "MotM",
      "license": ""
    },
    "advancement": [
      {
        "type": "AbilityScoreImprovement",
        "_id": "j1kVuNNOjBHZj6zr",
        "configuration": {
          "points": 3,
          "fixed": {
            "str": 0,
            "dex": 0,
            "con": 0,
            "int": 0,
            "wis": 0,
            "cha": 0
          },
          "cap": 2
        },
        "value": {
          "type": "asi"
        },
        "level": 0,
        "title": "",
        "icon": null
      },
      {
        "type": "Size",
        "_id": "PYiC8T5HhPcbLhpX",
        "configuration": {
          "sizes": [
            "med"
          ]
        },
        "level": 0,
        "value": {}
      },
      {
        "type": "Trait",
        "configuration": {
          "grants": [
            "languages:standard:common"
          ],
          "mode": "default",
          "allowReplacements": false,
          "choices": [
            {
              "count": 1,
              "pool": [
                "languages:*"
              ]
            }
          ],
          "hint": ""
        },
        "_id": "JsDjJlXUCKhlh8cx",
        "level": 0,
        "title": "",
        "icon": null,
        "value": {}
      },
      {
        "_id": "gW6gBW1JKoiM5b7d",
        "type": "ItemGrant",
        "configuration": {
          "items": [
            "Compendium.dnd5e.spells.Item.WahI41a3goVUg0x1"
          ],
          "optional": false,
          "spell": {
            "ability": "",
            "preparation": "innate",
            "uses": {
              "max": "",
              "per": "lr"
            }
          }
        },
        "value": {},
        "level": 3,
        "title": "Duergar Magic",
        "icon": null
      },
      {
        "_id": "HNUDoit8uDPuIF9s",
        "type": "ItemGrant",
        "configuration": {
          "items": [
            "Compendium.dnd5e.spells.Item.1N8dDMMgZ1h1YJ3B"
          ],
          "optional": false,
          "spell": {
            "ability": "",
            "preparation": "innate",
            "uses": {
              "max": "1",
              "per": "lr"
            }
          }
        },
        "value": {},
        "level": 5,
        "title": "Duergar Magic",
        "icon": null
      },
      {
        "_id": "QeHn6sEvVKVLr1aw",
        "type": "ItemGrant",
        "configuration": {
          "items": [
            "Compendium.dnd5e.races.Item.ufysTkqet2Ctmtyi",
            "Item.VqpN2P2Dw3aTGOcY",
            "Item.7QJBA8OOogvrbdj2"
          ],
          "optional": false,
          "spell": null
        },
        "value": {},
        "level": 0
      }
    ],
    "movement": {
      "burrow": null,
      "climb": null,
      "fly": null,
      "swim": null,
      "walk": 30,
      "units": null,
      "hover": false
    },
    "senses": {
      "darkvision": 120,
      "blindsight": null,
      "tremorsense": null,
      "truesight": null,
      "units": null,
      "special": ""
    },
    "type": {
      "value": "humanoid",
      "subtype": "Dwarf",
      "custom": ""
    }
  },
  "effects": [],
  "folder": "TfSevkniA9c56zlV",
  "flags": {
    "core": {},
    "exportSource": {
      "world": "test",
      "system": "dnd5e",
      "coreVersion": "11.315",
      "systemVersion": "3.0.4"
    }
  },
  "_stats": {
    "systemId": "dnd5e",
    "systemVersion": "3.0.4",
    "coreVersion": "11.315",
    "createdTime": 1711373506098,
    "modifiedTime": 1711377433149,
    "lastModifiedBy": "x6dGNqF45R5Qh86k"
  }
}