{
  "name": "Radiant Consumption",
  "type": "feat",
  "img": "icons/magic/light/explosion-beam-impact-silhouette.webp",
  "effects": [],
  "folder": "mtJc4JzwMviHnfx8",
  "flags": {
    "mre-dnd5e": {
      "formulaGroups": [
        {
          "label": "Primary",
          "formulaSet": [
            0
          ]
        }
      ]
    },
    "magicitems": {
      "enabled": false,
      "equipped": false,
      "attuned": false,
      "charges": "0",
      "chargeType": "c1",
      "destroy": false,
      "destroyFlavorText": "reaches 0 charges: it crumbles into ashes and is destroyed.",
      "rechargeable": false,
      "recharge": "0",
      "rechargeType": "t1",
      "rechargeUnit": "r1",
      "sorting": "l"
    },
    "core": {},
    "exportSource": {
      "world": "test",
      "system": "dnd5e",
      "coreVersion": "11.315",
      "systemVersion": "3.0.4"
    }
  },
  "system": {
    "description": {
      "value": "<p>Searing light temporarily radiates from your eyes and mouth. For the duration, you shed bright light in a 10-foot-radius and dim light for an additional 10 feet, and at the end of each of your turns, each creature within 10 feet of you takes <strong>radiant damage</strong> equal to your proficiency bonus.</p>\n<p>Until the transformation ends, once on each of your turns, you can deal extra <strong>radiant damage</strong> to one target when you deal damage to it with an attack or a spell. The extra damage equals your proficiency bonus.</p>",
      "chat": ""
    },
    "source": {
      "custom": "MotM"
    },
    "activation": {
      "type": "bonus",
      "cost": 1,
      "condition": ""
    },
    "duration": {
      "value": "1",
      "units": "minute"
    },
    "target": {
      "value": 10,
      "width": null,
      "units": "ft",
      "type": "radius",
      "prompt": true
    },
    "range": {
      "value": null,
      "long": null,
      "units": "self"
    },
    "uses": {
      "value": 1,
      "max": "1",
      "per": "lr",
      "recovery": "",
      "prompt": true
    },
    "consume": {
      "type": "",
      "target": "",
      "amount": null,
      "scale": false
    },
    "ability": "",
    "actionType": "other",
    "attackBonus": "",
    "chatFlavor": "",
    "critical": {
      "threshold": null,
      "damage": ""
    },
    "damage": {
      "parts": [
        [
          "@prof",
          "radiant"
        ]
      ],
      "versatile": ""
    },
    "formula": "",
    "save": {
      "ability": "",
      "dc": null,
      "scaling": "spell"
    },
    "requirements": "Aasimar",
    "recharge": {
      "value": null,
      "charged": false
    },
    "cover": null,
    "crewed": false,
    "type": {
      "value": "race",
      "subtype": ""
    },
    "properties": [
      "mgc"
    ]
  },
  "_stats": {
    "systemId": "dnd5e",
    "systemVersion": "3.0.4",
    "coreVersion": "11.315",
    "createdTime": 1710514036763,
    "modifiedTime": 1710514104502,
    "lastModifiedBy": "x6dGNqF45R5Qh86k"
  }
}