{
  "name": "Aarakocra",
  "type": "race",
  "img": "icons/commodities/biological/wing-bird-white.webp",
  "effects": [],
  "folder": "5LG19sXIuPbaXn0X",
  "flags": {
    "mre-dnd5e": {
      "formulaGroups": [
        {
          "label": "Primary",
          "formulaSet": []
        }
      ]
    },
    "magicitems": {
      "enabled": false,
      "equipped": false,
      "attuned": false,
      "charges": "0",
      "chargeType": "c1",
      "destroy": false,
      "destroyFlavorText": "reaches 0 charges: it crumbles into ashes and is destroyed.",
      "rechargeable": false,
      "recharge": "0",
      "rechargeType": "t1",
      "rechargeUnit": "r1",
      "sorting": "l"
    },
    "core": {
      "sheetClass": "dnd5e.ItemSheet5e"
    },
    "exportSource": {
      "world": "test",
      "system": "dnd5e",
      "coreVersion": "11.315",
      "systemVersion": "3.0.4"
    }
  },
  "system": {
    "description": {
      "value": "<p><em>A winged people who originated on the Elemental Plane of Air, aarakocra soar through the sky wherever they wander. The first aarakocra served the Wind Dukes of Aaqa — mighty beings of air — and were imbued with a measure of their masters’ power over winds. Their descendants still command echoes of that power.</em></p><p><em>From below, aarakocra look like large birds and thus are sometimes called birdfolk. Only when they roost on a branch or walk across the ground is their Humanoid nature clear. Standing upright, aarakocra are typically about 5 feet tall, and they have long, narrow legs that taper to sharp talons. Feathers cover their bodies — usually red, orange, yellow, brown, or gray. Their heads are also avian, often resembling those of parrots or eagles.</em></p><p><strong>Ability Score Increase.</strong> When determining your character’s ability scores, increase one score by 2 and increase a different score by 1, or increase three different scores by 1. You can't raise any of your scores above 20.</p><p><strong>Creature Type.</strong> You are a Humanoid.</p><p><strong>Size.</strong> Your size is Medium.</p><p><strong>Speed.</strong> Your walking speed is 30 feet.</p><p><strong>Flight.</strong> Because of your wings, you have a flying speed equal to your walking speed. You can’t use this flying speed if you’re wearing medium or heavy armor.</p><p><strong>Talons.</strong> You have talons that you can use to make unarmed strikes. When you hit with them, the strike deals 1d6 + your Strength modifier slashing damage, instead of the bludgeoning damage normal for an unarmed strike.</p><p><strong>Wind Caller.</strong> Starting at 3rd level, you can cast the @UUID[Compendium.dnd5e.spells.Item.FSMy6VAjDnXY9vWz]{Gust of Wind} spell with this trait, without requiring a material component. Once you cast the spell with this trait, you can’t do so again until you finish a long rest. You can also cast the spell using any spell slots you have of 2nd level or higher.</p><ul><li>Intelligence, Wisdom, or Charisma is your spellcasting ability for it when you cast @UUID[Compendium.dnd5e.spells.Item.FSMy6VAjDnXY9vWz]{Gust of Wind} with this trait (choose when you select this race).</li></ul><p><strong>Languages.</strong> Your character can speak, read, and write Common and one other language that you and your DM agree is appropriate for the character. The <em>Player’s Handbook</em> offers a list of languages to choose from. The DM is free to modify that list for a campaign.</p>",
      "chat": ""
    },
    "source": {
      "custom": "MotM",
      "book": "MotM",
      "page": "",
      "license": ""
    },
    "type": {
      "value": "humanoid",
      "subtype": "",
      "custom": ""
    },
    "advancement": [
      {
        "_id": "eRVKAXbmPiDNdJew",
        "type": "AbilityScoreImprovement",
        "configuration": {
          "points": 3,
          "fixed": {
            "str": 0,
            "dex": 0,
            "con": 0,
            "int": 0,
            "wis": 0,
            "cha": 0
          },
          "cap": 2
        },
        "value": {
          "type": "asi"
        },
        "level": 0,
        "title": "",
        "icon": null
      },
      {
        "_id": "BMNkbWHkBIDt7XPS",
        "type": "Size",
        "configuration": {
          "sizes": [
            "med"
          ]
        },
        "level": 0,
        "value": {}
      },
      {
        "_id": "Xz1YH9GMJtRax5ht",
        "type": "Trait",
        "configuration": {
          "mode": "default",
          "allowReplacements": false,
          "grants": [
            "languages:standard:common"
          ],
          "choices": [
            {
              "count": 1,
              "pool": [
                "languages:*"
              ]
            }
          ],
          "hint": ""
        },
        "level": 0,
        "title": "",
        "icon": null,
        "value": {}
      },
      {
        "_id": "dkNjpbTuEKYwZjTN",
        "type": "ItemGrant",
        "configuration": {
          "items": [
            "Item.Ts1YntTR0ulabU0t"
          ],
          "optional": false,
          "spell": null
        },
        "value": {},
        "level": 0
      },
      {
        "_id": "3fEDuJNL5JhiiwLI",
        "type": "ItemGrant",
        "configuration": {
          "items": [
            "Compendium.dnd5e.spells.Item.FSMy6VAjDnXY9vWz"
          ],
          "optional": false,
          "spell": {
            "ability": "",
            "preparation": "innate",
            "uses": {
              "max": "1",
              "per": "lr"
            }
          }
        },
        "value": {},
        "level": 3,
        "title": "",
        "icon": null
      }
    ],
    "movement": {
      "burrow": null,
      "climb": null,
      "fly": 30,
      "swim": null,
      "walk": 30,
      "units": null,
      "hover": false
    },
    "senses": {
      "darkvision": null,
      "blindsight": null,
      "tremorsense": null,
      "truesight": null,
      "units": null,
      "special": ""
    }
  },
  "_stats": {
    "systemId": "dnd5e",
    "systemVersion": "3.0.4",
    "coreVersion": "11.315",
    "createdTime": 1710504186834,
    "modifiedTime": 1710511423362,
    "lastModifiedBy": "x6dGNqF45R5Qh86k"
  }
}